module modilareServices

go 1.15

require (
	github.com/gin-contrib/static v0.0.0-20200916080430-d45d9a37d28e
	github.com/gin-gonic/gin v1.6.3
	github.com/kr/pretty v0.1.0 // indirect
	github.com/modern-go/concurrent v0.0.0-20180306012644-bacd9c7ef1dd // indirect
	github.com/modern-go/reflect2 v1.0.1 // indirect
	github.com/ugorji/go v1.1.13 // indirect
	gopkg.in/check.v1 v1.0.0-20180628173108-788fd7840127 // indirect
)
