[
  {
    "group": "/v1",
    "routes": [
      {
        "method": "GET",
        "endpoint": "/0",
        "command": "./template",
        "payload": "payload",
        "path": {
          "name": ":name"
        },
        "query": {
          "q": "name"
        },
        "output": "json"
      },
      {
        "method": "GET",
        "endpoint": "/1",
        "command": "./template",
        "payload": "payload",
        "output": "json"
      },
      {
        "method": "GET",
        "endpoint": "/2",
        "command": "./template"
      }
    ]
  }
]